terminal,time,cpu,memory
xterm,24.42,111,49208
xterm,22.27,114,48832
xterm,22.45,113,48884
xterm,22.99,113,48732
xterm,23.35,112,48960
xterm,22.13,114,48972
xterm,21.81,114,48736
xterm,21.98,114,48796
xterm,15.52,119,30704
xterm,15.52,120,31000
xterm,22.34,113,49160
xterm,22.96,114,48980
xterm,21.93,114,48808
xterm,21.74,114,49012
xterm,22.26,113,48736
xterm,21.52,114,48988
xterm,21.29,114,48912
xterm,21.32,114,49064
xterm,25.94,114,49044
xterm,25.78,114,49084
xterm,25.81,113,48996
xterm,25.72,114,48916
xterm,25.86,114,49080
xterm,25.74,113,48972
xterm,25.76,113,48836
xterm,25.76,115,49052
xterm,29.09,112,48960
xterm,25.70,113,48860
xterm,25.77,113,48836
xterm,25.80,113,48808
xterm,25.74,113,49036
xterm,25.76,113,48960
xterm,25.84,114,49016
xterm,25.78,114,49068
xterm,25.77,113,48944
xterm,25.74,113,48908
xterm,25.75,114,49024
xterm,25.68,114,49044
xterm,26.18,115,48996
xterm,25.70,113,48984
xterm,25.82,110,48828
xterm,21.41,115,48892
xterm,21.65,115,48900
xterm,21.08,115,48976
xterm,20.68,115,48932
xterm,20.90,115,48892
xterm,20.41,115,48940
xterm,20.56,115,49008
xterm,20.80,115,48812
xterm,20.79,115,48808
xterm,20.49,115,48884
xterm,20.60,115,48836
xterm,21.71,114,48960
xterm,20.53,115,48996
xterm,20.68,115,48936
xterm,20.49,115,48848
xterm,20.67,115,48720
xterm,20.63,115,48736
xterm,20.48,115,48996
xterm,20.71,115,48812
xterm,20.70,115,49004
xterm,20.64,115,48956
xterm,20.58,115,48964
xterm,20.36,115,48776
xterm,20.60,115,48920
xterm,20.58,115,48928
xterm,20.34,115,48992
xterm,20.50,115,48932
xterm,20.52,115,49012
xterm,20.86,115,48840
xterm,20.46,115,48692
xterm,20.61,115,48788
xterm,20.55,116,48832
xterm,20.36,115,48736
xterm,20.65,115,48832
xterm,20.46,115,48884
xterm,20.61,115,48860
xterm,20.73,115,49012
xterm,20.39,115,48956
xterm,20.57,115,48992
xterm,24.81,114,48928
xterm,22.74,113,49088
xterm,21.80,114,48796
xterm,15.50,120,30732
xterm,16.29,118,30648
xterm,15.84,120,30908
xterm,15.63,119,30992
xterm,21.17,114,48968
xterm,21.07,116,48932
xterm,21.53,114,48836
xterm,21.85,114,49032
xterm,24.98,113,49060
xterm,25.22,114,48936
xterm,25.01,115,48836
xterm,24.38,115,48980
xterm,24.20,115,48872
xterm,23.60,115,49064
xterm,21.23,115,49068
xterm,15.47,120,30964
xterm,15.28,120,30780
